      _
   __| |   __ _  __  __   __ _   _ __ ___     __ _   _   _    ___
  / _` |  / _` | \ \/ /  / _` | | '_ ` _ \   / _` | | | | |  / __|
 | (_| | | (_| |  >  <  | (_| | | | | | | | | (_| | | |_| | | (__
  \__,_|  \__,_| /_/\_\  \__,_| |_| |_| |_|  \__,_|  \__, |  \___|
                                                     |___/
Spring Boot ${spring-boot.version}
Environment ${spring.profiles.active}
