{
  "prods": [
    {
      "id": 1,
      "cod": "prod-1",
      "name": "prod-name-1",
      "price": 5.5,
      "stock": 10
    },
    {
      "id": 2,
      "cod": "prod-2",
      "name": "prod-name-2",
      "price": 6,
      "stock": 5
    },
    {
      "id": 3,
      "cod": "prod-3",
      "name": "prod-name-3",
      "price": 7.5,
      "stock": 15
    },
    {
      "id": 4,
      "cod": "prod-4",
      "name": "prod-name-4",
      "price": 2.5,
      "stock": 20
    },
    {
      "id": 5,
      "cod": "prod-5",
      "name": "prod-name-5",
      "price": 9.5,
      "stock": 25
    },
    {
      "id": 6,
      "cod": "prod-6",
      "name": "prod-name-6",
      "price": 1.5,
      "stock": 0
    }
  ]
}
